<svg xmlns="http://www.w3.org/2000/svg" width="28" height="28" viewBox="0 0 28 28">
  <g id="Group_5742" data-name="Group 5742" transform="translate(-1020 -1452)">
    <g id="Group_5741" data-name="Group 5741">
      <path id="Path_2087" data-name="Path 2087" d="M1411.708,65.657h-16.431a1.017,1.017,0,0,0-1.017,1.017V83.1a1.017,1.017,0,0,0,1.017,1.017h8.847V76.971H1401.7V74.19h2.407V72.128a3.354,3.354,0,0,1,3.575-3.683,19.136,19.136,0,0,1,2.149.111v2.491h-1.474c-1.16,0-1.382.552-1.382,1.359v1.78h2.761l-.362,2.781H1407v7.151h4.708a1.017,1.017,0,0,0,1.017-1.017V66.674A1.017,1.017,0,0,0,1411.708,65.657Z" transform="translate(-369.26 1391.344)" fill="#1c1c1c"/>
      <rect id="Rectangle_1451" data-name="Rectangle 1451" width="28" height="28" transform="translate(1020 1452)" fill="none"/>
    </g>
  </g>
</svg>
