<svg xmlns="http://www.w3.org/2000/svg" width="28" height="28" viewBox="0 0 28 28">
  <g id="Group_5291" data-name="Group 5291" transform="translate(18866 -1434)">
    <rect id="Rectangle_623" data-name="Rectangle 623" width="28" height="28" transform="translate(-18866 1434)" fill="none"/>
    <g id="Group_5262" data-name="Group 5262" transform="translate(-18863.051 1436.785)">
      <path id="Path_1010" data-name="Path 1010" d="M155.215,80v9.943a.635.635,0,0,1-.289.539l-.884.587a.643.643,0,0,1-.981-.378L152,86.43" transform="translate(-145.734 -72.109)" fill="none" stroke="#fff" stroke-linecap="round" stroke-linejoin="round" stroke-width="1"/>
      <path id="Path_1011" data-name="Path 1011" d="M35.215,44.37a3.215,3.215,0,1,1,0-6.43H38.43a14.638,14.638,0,0,0,8.593-3.529.643.643,0,0,1,1.053.49V47.408a.643.643,0,0,1-1.053.49A14.638,14.638,0,0,0,38.43,44.37Z" transform="translate(-28.949 -30.048)" fill="none" stroke="#fff" stroke-linecap="round" stroke-linejoin="round" stroke-width="1"/>
    </g>
  </g>
</svg>
